{
  "project_info": {
    "project_number": "890406758485",
    "firebase_url": "https://myapplication-3f48f.firebaseio.com",
    "project_id": "myapplication-3f48f",
    "storage_bucket": "myapplication-3f48f.appspot.com"
  },
  "client": [
    {
      "client_info": {
        "mobilesdk_app_id": "1:890406758485:android:13c3c6a65bcbec53",
        "android_client_info": {
          "package_name": "com.example.myapplication"
        }
      },
      "oauth_client": [
        {
          "client_id": "890406758485-3cc4d3i3c3te4epsmjpbrbot6nuvm1rm.apps.googleusercontent.com",
          "client_type": 1,
          "android_info": {
            "package_name": "com.example.myapplication",
            "certificate_hash": "56a941f16652ba0e6d686649fd7391c06a9b508c"
          }
        },
        {
          "client_id": "890406758485-mlvv57b0ct36m27mmujbvitnc3dm7aj9.apps.googleusercontent.com",
          "client_type": 3
        }
      ],
      "api_key": [
        {
          "current_key": "AIzaSyCKdNK9B3a9VOtnWaDB7r1r7hjEmW8RFIA"
        }
      ],
      "services": {
        "analytics_service": {
          "status": 1
        },
        "appinvite_service": {
          "status": 2,
          "other_platform_oauth_client": [
            {
              "client_id": "890406758485-mlvv57b0ct36m27mmujbvitnc3dm7aj9.apps.googleusercontent.com",
              "client_type": 3
            }
          ]
        },
        "ads_service": {
          "status": 2
        }
      }
    }
  ],
  "configuration_version": "1"
}